XDG_SEAT_PATH=/org/freedesktop/DisplayManager/Seat0
XDG_CONFIG_DIRS=/etc/xdg
LANG=es_AR.utf8
DISPLAY=:0.0
XDG_VTNR=7
LOGNAME=nico
LANGUAGE=es_AR:es
PWD=/home/nico/Documentos/so/practico1
XAUTHORITY=/home/nico/.Xauthority
QT_LINUX_ACCESSIBILITY_ALWAYS_ON=1
XDG_GREETER_DATA_DIR=/var/lib/lightdm/data/nico
XDG_SESSION_ID=2
DESKTOP_SESSION=lightdm-xsession
XDG_SESSION_DESKTOP=lightdm-xsession
GDMSESSION=lightdm-xsession
DBUS_SESSION_BUS_ADDRESS=unix:path=/run/user/1000/bus
XDG_DATA_DIRS=/usr/share/xfce4:/usr/local/share/:/usr/share/:/var/lib/snapd/desktop:/usr/share
XDG_MENU_PREFIX=xfce-
GLADE_MODULE_PATH=:
QT_ACCESSIBILITY=1
SHELL=/usr/bin/zsh
XDG_SESSION_TYPE=x11
SSH_AGENT_PID=1203
GTK_MODULES=gail:atk-bridge
SESSION_MANAGER=local/cachin:@/tmp/.ICE-unix/1245,unix/cachin:/tmp/.ICE-unix/1245
SSH_AUTH_SOCK=/tmp/ssh-7JaM7jWdXs8g/agent.1095
PATH=/home/nico/.local/bin:/usr/local/bin:/usr/bin:/bin:/usr/local/games:/usr/games
XDG_CURRENT_DESKTOP=XFCE
GLADE_CATALOG_PATH=:
HOME=/home/nico
XDG_SEAT=seat0
GLADE_PIXMAP_PATH=:
XDG_RUNTIME_DIR=/run/user/1000
XDG_SESSION_PATH=/org/freedesktop/DisplayManager/Session0
USER=nico
GUAKE_TAB_UUID=40349ed8-a17e-4d05-ad7e-e1cc28dd42ae
TERM=xterm
SHLVL=1
OLDPWD=/home/nico/Documentos/so
ZSH=/home/nico/.oh-my-zsh
PAGER=less
LESS=-R
LC_CTYPE=es_AR.utf8
LSCOLORS=Gxfxcxdxbxegedabagacad
LS_COLORS=rs=0:di=01;34:ln=01;36:mh=00:pi=40;33:so=01;35:do=01;35:bd=40;33;01:cd=40;33;01:or=40;31;01:mi=00:su=37;41:sg=30;43:ca=30;41:tw=30;42:ow=34;42:st=37;44:ex=01;32:*.tar=01;31:*.tgz=01;31:*.arc=01;31:*.arj=01;31:*.taz=01;31:*.lha=01;31:*.lz4=01;31:*.lzh=01;31:*.lzma=01;31:*.tlz=01;31:*.txz=01;31:*.tzo=01;31:*.t7z=01;31:*.zip=01;31:*.z=01;31:*.Z=01;31:*.dz=01;31:*.gz=01;31:*.lrz=01;31:*.lz=01;31:*.lzo=01;31:*.xz=01;31:*.zst=01;31:*.tzst=01;31:*.bz2=01;31:*.bz=01;31:*.tbz=01;31:*.tbz2=01;31:*.tz=01;31:*.deb=01;31:*.rpm=01;31:*.jar=01;31:*.war=01;31:*.ear=01;31:*.sar=01;31:*.rar=01;31:*.alz=01;31:*.ace=01;31:*.zoo=01;31:*.cpio=01;31:*.7z=01;31:*.rz=01;31:*.cab=01;31:*.jpg=01;35:*.jpeg=01;35:*.mjpg=01;35:*.mjpeg=01;35:*.gif=01;35:*.bmp=01;35:*.pbm=01;35:*.pgm=01;35:*.ppm=01;35:*.tga=01;35:*.xbm=01;35:*.xpm=01;35:*.tif=01;35:*.tiff=01;35:*.png=01;35:*.svg=01;35:*.svgz=01;35:*.mng=01;35:*.pcx=01;35:*.mov=01;35:*.mpg=01;35:*.mpeg=01;35:*.m2v=01;35:*.mkv=01;35:*.webm=01;35:*.ogm=01;35:*.mp4=01;35:*.m4v=01;35:*.mp4v=01;35:*.vob=01;35:*.qt=01;35:*.nuv=01;35:*.wmv=01;35:*.asf=01;35:*.rm=01;35:*.rmvb=01;35:*.flc=01;35:*.avi=01;35:*.fli=01;35:*.flv=01;35:*.gl=01;35:*.dl=01;35:*.xcf=01;35:*.xwd=01;35:*.yuv=01;35:*.cgm=01;35:*.emf=01;35:*.ogv=01;35:*.ogx=01;35:*.aac=00;36:*.au=00;36:*.flac=00;36:*.m4a=00;36:*.mid=00;36:*.midi=00;36:*.mka=00;36:*.mp3=00;36:*.mpc=00;36:*.ogg=00;36:*.ra=00;36:*.wav=00;36:*.oga=00;36:*.opus=00;36:*.spx=00;36:*.xspf=00;36:
_=/usr/bin/env
